lam zeta N0 N1 N2 N3 N4 N5 N6 N7 N8 N9 N10 N11 N12 N13
0.000000000000000000e+00 -1.600000000000000000e+01 -1.600000000000000000e+01 -1.600000000000000000e+01 -1.600000000000000000e+01 -1.600000000000000000e+01 -1.600000000000000000e+01 -1.600000000000000000e+01 -1.600000000000000000e+01 -1.600000000000000000e+01 -1.600000000000000000e+01 -1.600000000000000000e+01 -1.600000000000000000e+01 -1.600000000000000000e+01 -1.600000000000000000e+01 -1.600000000000000000e+01
2.000000000000000000e+00 -1.593774319066147704e+01 -1.593785933305292168e+01 -1.593774319066147882e+01 -1.593774319066147882e+01 -1.593774319066147882e+01 -1.593774319066147882e+01 -1.593774319066148060e+01 -1.593774319066147882e+01 -1.593774319066147704e+01 -1.593774319066147882e+01 -1.593774319066147882e+01 -1.593774319066147882e+01 -1.593774319066148060e+01 -1.593774319066147882e+01 -1.593774319066148060e+01
6.000000000000000000e+00 -1.581252544749898448e+01 -1.581357799915876328e+01 -1.581252545593164882e+01 -1.581252544749898092e+01 -1.581252544749898270e+01 -1.581252544749898270e+01 -1.581252544749898270e+01 -1.581252544749898092e+01 -1.581252544749898092e+01 -1.581252544749898270e+01 -1.581252544749898092e+01 -1.581252544749898092e+01 -1.581252544749897915e+01 -1.581252544749898092e+01 -1.581252544749898092e+01
1.200000000000000000e+01 -1.562290133549432980e+01 -1.562715599831752655e+01 -1.562290154980865609e+01 -1.562290133548906468e+01 -1.562290133549433158e+01 -1.562290133549433158e+01 -1.562290133549433158e+01 -1.562290133549432980e+01 -1.562290133549433335e+01 -1.562290133549433335e+01 -1.562290133549433335e+01 -1.562290133549433158e+01 -1.562290133549433335e+01 -1.562290133549433335e+01 -1.562290133549433158e+01
2.000000000000000000e+01 -1.536660571094889427e+01 -1.537859333052921151e+01 -1.536660768111340580e+01 -1.536660571066005332e+01 -1.536660571094882499e+01 -1.536660571094889605e+01 -1.536660571094889249e+01 -1.536660571094889427e+01 -1.536660571094889249e+01 -1.536660571094889249e+01 -1.536660571094889249e+01 -1.536660571094889427e+01 -1.536660571094889427e+01 -1.536660571094889605e+01 -1.536660571094889605e+01
3.000000000000000000e+01 -1.504042547738465352e+01 -1.506788999579381638e+01 -1.504043647654398796e+01 -1.504042547206754676e+01 -1.504042547737939017e+01 -1.504042547738458246e+01 -1.504042547738465530e+01 -1.504042547738464997e+01 -1.504042547738465530e+01 -1.504042547738465174e+01 -1.504042547738465352e+01 -1.504042547738464641e+01 -1.504042547738465530e+01 -1.504042547738464997e+01 -1.504042547738465352e+01
4.200000000000000000e+01 -1.464000708300717690e+01 -1.469504599411134294e+01 -1.464005231085093506e+01 -1.464000702640591633e+01 -1.464000708287956876e+01 -1.464000708300105558e+01 -1.464000708300728526e+01 -1.464000708300717513e+01 -1.464000708300717335e+01 -1.464000708300717335e+01 -1.464000708300717157e+01 -1.464000708300717690e+01 -1.464000708300717157e+01 -1.464000708300717690e+01 -1.464000708300717157e+01
5.600000000000000000e+01 -1.415957793816700772e+01 -1.426006132548179117e+01 -1.415972859582525523e+01 -1.415957750813793048e+01 -1.415957793645719320e+01 -1.415957793800720488e+01 -1.415957793818079402e+01 -1.415957793816691179e+01 -1.415957793816700416e+01 -1.415957793816700239e+01 -1.415957793816700416e+01 -1.415957793816700416e+01 -1.415957793816700416e+01 -1.415957793816700772e+01 -1.415957793816700594e+01
7.200000000000000000e+01 -1.359155121543459188e+01 -1.376293598990516109e+01 -1.359197976791164209e+01 -1.359154861620027965e+01 -1.359155119975017634e+01 -1.359155121325133919e+01 -1.359155121591848214e+01 -1.359155121542519318e+01 -1.359155121543467359e+01 -1.359155121543459721e+01 -1.359155121543459721e+01 -1.359155121543459543e+01 -1.359155121543459543e+01 -1.359155121543459721e+01 -1.359155121543460787e+01
9.000000000000000000e+01 -1.292597690155253964e+01 -1.320366998738145092e+01 -1.292704834849276274e+01 -1.292596357264537410e+01 -1.292597679245957742e+01 -1.292597688248098642e+01 -1.292597691024835882e+01 -1.292597690128491550e+01 -1.292597690155954915e+01 -1.292597690155262313e+01 -1.292597690155260359e+01 -1.292597690155260537e+01 -1.292597690155260359e+01 -1.292597690155260537e+01 -1.292597690155260537e+01
1.100000000000000000e+02 -1.214981157359774677e+01 -1.258226331791066244e+01 -1.215219050818175717e+01 -1.214975116951045564e+01 -1.214981097169131274e+01 -1.214981146086435260e+01 -1.214981167642191728e+01 -1.214981156990575073e+01 -1.214981157376261045e+01 -1.214981157360423047e+01 -1.214981157359784980e+01 -1.214981157359779118e+01 -1.214981157359779118e+01 -1.214981157359778408e+01 -1.214981157359774677e+01
1.320000000000000000e+02 -1.124605325176759507e+01 -1.189871598149279563e+01 -1.125068192998297611e+01 -1.124580499266811628e+01 -1.124605063330063004e+01 -1.124605286379867941e+01 -1.124605418203226215e+01 -1.124605322352747727e+01 -1.124605325342487916e+01 -1.124605325208849571e+01 -1.124605325178281490e+01 -1.124605325176668025e+01 -1.124605325176683124e+01 -1.124605325176683479e+01 -1.124605325176680104e+01
1.560000000000000000e+02 -1.019307645130790974e+01 -1.115302797812784874e+01 -1.020044358349988123e+01 -1.019213821491894656e+01 -1.019306846834284030e+01 -1.019307695352256005e+01 -1.019308354654053517e+01 -1.019307637146811807e+01 -1.019307645357254088e+01 -1.019307645774109261e+01 -1.019307645202782275e+01 -1.019307645125788042e+01 -1.019307645130859896e+01 -1.019307645130820283e+01 -1.019307645130840712e+01
1.820000000000000000e+02 -8.965437514520189666e+00 -1.034519930781582175e+01 -8.972183429883308747e+00 -8.962176783723052154e+00 -8.965432834993794842e+00 -8.965457745146014901e+00 -8.965485059050497085e+00 -8.965438445265965228e+00 -8.965437342713853397e+00 -8.965437579519576872e+00 -8.965437525936362562e+00 -8.965437511739853704e+00 -8.965437514543117103e+00 -8.965437514527412333e+00 -8.965437514527652141e+00
2.100000000000000000e+02 -7.540028837561820296e+00 -9.475229970556718229e+00 -7.527033228174243362e+00 -7.529837080468592347e+00 -7.540180272552401419e+00 -7.540215965431233514e+00 -7.540305273650560025e+00 -7.540044484855605411e+00 -7.540025964923594337e+00 -7.540029067241303729e+00 -7.540028879124582417e+00 -7.540028782250432826e+00 -7.540028837178263110e+00 -7.540028837544934248e+00 -7.540028837542005036e+00
2.400000000000000000e+02 -5.917008005717481645e+00 -8.543119966350534611e+00 -5.814055357748012298e+00 -5.890320913649439660e+00 -5.918313922720130904e+00 -5.918138234811344489e+00 -5.918313505578225886e+00 -5.917131210206324710e+00 -5.916981864795696211e+00 -5.917005326964694945e+00 -5.917006930811803400e+00 -5.917007733020233751e+00 -5.917007983570606200e+00 -5.917008007284636051e+00 -5.917008005778866320e+00
2.720000000000000000e+02 -4.168741874176677520e+00 -7.548869295197274454e+00 -3.769438876218773604e+00 -4.122214172597324477e+00 -4.174984477109632053e+00 -4.173256838881847841e+00 -4.172993578064577491e+00 -4.169295594115212111e+00 -4.168605057723979712e+00 -4.168700401004365119e+00 -4.168725363237026471e+00 -4.168749183542807657e+00 -4.168741583714629328e+00 -4.168741895228921024e+00 -4.168741873814177268e+00
3.060000000000000000e+02 -2.500614369066580522e+00 -6.492477957096932428e+00 -1.324093028714783848e+00 -2.510052156133241397e+00 -2.516736455914212911e+00 -2.509407453023101198e+00 -2.505593637472969704e+00 -2.501512838720543641e+00 -2.500386237792120880e+00 -2.500406703895848182e+00 -2.500533856456506498e+00 -2.500755305374148918e+00 -2.500614063211788363e+00 -2.500614325470688293e+00 -2.500614409687073714e+00
3.420000000000000000e+02 -1.210202313868197876e+00 -5.373945952049513863e+00 1.557661634373276982e+00 -1.563800921324201454e+00 -1.216250456529223811e+00 -1.200231200923752795e+00 -1.185667311805673307e+00 -1.206739558106391996e+00 -1.211680397324599312e+00 -1.210100966337236628e+00 -1.210246616604521819e+00 -1.211184056176392687e+00 -1.210217827039327787e+00 -1.210199989238160967e+00 -1.210202489321176245e+00
3.800000000000000000e+02 -4.595935879126224477e-01 -4.193273280055015206e+00 4.736660590802086901e+00 -1.481268408876218245e+00 -3.754960362191468448e-01 -3.649736882000524929e-01 -3.376168263664851565e-01 -4.402304596959538685e-01 -4.680703508150259040e-01 -4.620953041632489544e-01 -4.611202047187532571e-01 -4.624948945381675003e-01 -4.596701951383650453e-01 -4.595813836594615509e-01 -4.595897907341068844e-01
4.200000000000000000e+02 -1.384229875643554764e-01 -2.950459941113436457e+00 7.468463493683508148e+00 -1.611106097211575161e+00 1.100986983155962662e-01 7.644425058799697581e-02 9.619053869175786531e-02 -1.034745197398478922e-01 -1.535439376885392448e-01 -1.466920288034145869e-01 -1.427445449054189908e-01 -1.400230069707504299e-01 -1.384419008871304868e-01 -1.384234308551981485e-01 -1.384032365059297831e-01
4.620000000000000000e+02 -3.413366303671471619e-02 -1.645505935224781169e+00 7.526210065281963679e+00 -1.216430220149447905e+00 2.991083942060868139e-01 1.845539712873005556e-01 1.541819616063548892e-01 -1.921344384629719571e-02 -3.274179961204026768e-02 -4.211155012589529179e-02 -3.646198352100782358e-02 -1.873528822909520386e-02 -3.350189684499582654e-02 -3.430441549480178764e-02 -3.414446100686063801e-02
5.060000000000000000e+02 -7.110936069724445828e-03 -2.784112623890457883e-01 1.511773771924739940e+00 -1.362137342059952516e-01 1.334968631254014326e-01 -5.500681548573993496e-02 -1.732632611738154083e-01 -7.006342866611703357e-02 5.234890568294758850e-02 6.224351039008979569e-03 6.131545082297407134e-03 5.023254962964074366e-02 -5.278096279994315410e-03 -7.683658085284150729e-03 -7.360709024652578591e-03
5.520000000000000000e+02 -1.281000888679058097e-03 1.150824077393767908e+00 -9.461189995810071807e+00 1.481099681624655773e+00 -3.921779401043750113e-01 -5.825465026766778465e-01 -7.858222533250227571e-01 -1.791218066484816518e-01 1.408102427512858412e-01 5.657102167776884016e-02 4.013909208094901260e-02 1.103382785645408148e-01 7.798665452583009028e-04 -1.992579429327179241e-03 -1.940865809302749767e-03
6.000000000000000000e+02 -2.028345960285466028e-04 2.642200084123661696e+00 -1.828023266418331616e+01 3.454446168280131957e+00 -1.100301506152163711e+00 -1.183832021940361301e+00 -1.417898507022982812e+00 -2.755479862863694507e-01 1.923002506159718905e-01 1.029830973313892173e-01 6.417003847275282169e-02 1.410588202122653456e-01 -1.203948954298539320e-03 4.503646065359134809e-04 -7.289554117733132443e-04
6.500000000000000000e+02 -2.856831742715258148e-05 4.195716757800632024e+00 -2.208996658646374200e+01 5.618574969978496370e+00 -1.695603464328740984e+00 -1.587695313383619578e+00 -1.775894422783039772e+00 -2.996612494368946500e-01 1.409885712299683291e-01 1.099648107465327485e-01 5.432535249656211818e-02 1.016929927016008151e-01 -8.296333683347256738e-03 4.601176927963024355e-03 1.294633558927671402e-03
7.020000000000000000e+02 -3.612354140377534450e-06 5.811374098424682444e+00 -2.265660775757786638e+01 7.784616905243069596e+00 -1.935849648530847844e+00 -1.610779446357582856e+00 -1.690660308880069351e+00 -2.184239727112071705e-01 -5.521105439311213559e-02 4.282399355156485399e-02 -1.040071923989671632e-02 -3.434371053299400955e-02 -1.769612765963302081e-02 1.061067768137036182e-02 5.441514995595753135e-03
7.560000000000000000e+02 -4.131567945522036934e-07 7.489172105995812956e+00 -2.177825503758718995e+01 9.682108036845932020e+00 -1.723747293396627356e+00 -1.204505289717417327e+00 -1.141243883020479188e+00 -2.882766977472783765e-02 -3.823915429870794469e-01 -1.094395775814973604e-01 -1.315949469649240200e-01 -2.587329945263263653e-01 -2.466131393600790034e-02 1.535384127254246778e-02 1.051155348523025168e-02
8.120000000000000000e+02 -4.301156032604516338e-08 9.229110780514020007e+00 -2.035542034077127482e+01 1.090401203157023247e+01 -1.081507230342140247e+00 -4.134231375201125047e-01 -1.935742095245132077e-01 2.496658947875403101e-01 -7.674899898893272621e-01 -3.244578865328549000e-01 -2.865007636121390533e-01 -5.256181873965033446e-01 -2.411000291681375529e-02 1.361600483312486176e-02 1.317772068659905926e-02
8.700000000000000000e+02 -4.097661541918175104e-09 1.103119012197930715e+01 -1.876220587471807733e+01 1.088925436527370039e+01 -8.735658377827348886e-02 6.799119602610517177e-01 1.058853896474374778e+00 5.852640614693882526e-01 -1.104495326679625578e+00 -5.521880698205450244e-01 -4.344419959206788917e-01 -7.664088586589059560e-01 -1.246891346772827092e-02 1.818042593413338182e-04 8.916199479244824033e-03
9.300000000000000000e+02 -3.589218793848808758e-10 1.289541013039167439e+01 -1.714269855386441677e+01 9.018015459287312297e+00 1.168358912353141932e+00 1.986700287261896847e+00 2.523114613086818281e+00 9.416654328306321986e-01 -1.292720666810055263e+00 -7.312908372484798747e-01 -5.297008605864448327e-01 -9.120795004746469203e-01 1.090594387278542854e-02 -2.762986527841349016e-02 -5.724939280526086804e-03
9.920000000000000000e+02 -2.902475920267336489e-11 1.482177080575112171e+01 -1.554742445067305212e+01 4.897022486170271804e+00 2.600145694279490272e+00 3.421522150001692353e+00 4.111998873604306937e+00 1.282741084178269375e+00 -1.264933750916497956e+00 -8.071062986140304929e-01 -5.340725865316926502e-01 -9.117053023064727313e-01 4.384639722729843925e-02 -6.823929820347984787e-02 -3.186966729481355287e-02
1.056000000000000000e+03 -2.174895823771067665e-12 1.681027214805764203e+01 -1.398965396557095531e+01 -1.248969897521646999e+00 4.128414270999201108e+00 4.900370663063085885e+00 5.738719296734871023e+00 1.574979842259381257e+00 -9.953990777230501408e-01 -7.435231145852867485e-01 -4.244371473446335585e-01 -7.401653553051801282e-01 8.218596407823497429e-02 -1.154489645509784168e-01 -6.691963655021027080e-02
1.122000000000000000e+03 -1.515108674045319408e-13 1.886091415731124954e+01 -1.246827109984722881e+01 -8.444057929257269279e+00 5.674146532228405704e+00 6.334598605116070758e+00 7.308468897868124259e+00 1.788747237420466263e+00 -4.927524762206303421e-01 -5.264365414004714694e-01 -1.944928636559097868e-01 -3.967858571795659373e-01 1.208598443827213487e-01 -1.594340979791013524e-01 -1.050438241900337744e-01
1.190000000000000000e+03 -9.841988309783452079e-15 2.097369683351193004e+01 -1.097710588322346581e+01 -1.537586413394092233e+01 7.152104937242256710e+00 7.624640547634044196e+00 8.710237778529403840e+00 1.899067333322818740e+00 2.123551532858982682e-01 -1.609982364018378576e-01 1.475263631957659527e-01 1.009316793006291846e-01 1.549243230010688421e-01 -1.886955599402426742e-01 -1.378837351098809449e-01
1.260000000000000000e+03 -5.977754307954735881e-16 2.314862017665969063e+01 -9.508729695195341947e+00 -2.104323999756070407e+01 8.464849404816050082e+00 8.655714151347183360e+00 9.811054447927062938e+00 1.886270549048276735e+00 1.077886566675260838e+00 3.337038257377571426e-01 5.827173614170533256e-01 7.237939088481653016e-01 1.802562967995982035e-01 -1.917874350692727603e-01 -1.564629050621988426e-01
1.332000000000000000e+03 -3.403237312641683681e-17 2.538568418675453131e+01 -8.055946178681892889e+00 -2.506226724791235938e+01 9.499044559412141098e+00 9.297503559467259038e+00 1.045521507909688808e+01 1.736595714855866390e+00 2.057018755880562821e+00 9.298268883098899096e-01 1.085254591844432071e+00 1.436621258189916261e+00 1.936123393115849467e-01 -1.596499336446868256e-01 -1.515650879341592372e-01
1.406000000000000000e+03 -1.820294618047714125e-18 2.768488886379644498e+01 -6.612313619488908500e+00 -2.753498486279431745e+01 1.012574831331585301e+01 9.410141524195751117e+00 1.047198829658736940e+01 1.442705515100897173e+00 3.101153658442854066e+00 1.594621915149218694e+00 1.625286815512481553e+00 2.200821594619810639e+00 1.938439048026339151e-01 -8.706284416257403791e-02 -1.170533442164014559e-01
1.482000000000000000e+03 -9.166574069436628825e-20 3.004623420778544585e+01 -5.172263882130003765e+00 -2.877777346674042747e+01 1.020679891445251997e+01 8.858661101914549363e+00 9.695414129657365265e+00 1.003991113861047779e+00 4.160609987044153968e+00 2.292822419482945406e+00 2.170876553432663059e+00 2.976433887472921924e+00 1.798681493346521165e-01 2.818961627872340614e-02 -4.999926592199699371e-02
1.560000000000000000e+03 -4.354539793936759206e-21 3.246972021872151970e+01 -3.731060958538783723e+00 -2.912927595983046558e+01 9.609279292024439201e+00 7.536445071266825835e+00 7.997439282607047062e+00 4.265465038497495698e-01 5.184189286788750906e+00 2.987953845098672900e+00 2.689251904367665702e+00 3.722764578345504560e+00 1.520010246149468003e-01 1.837049462728828075e-01 5.229472293922299286e-02
1.640000000000000000e+03 -1.954978889214816925e-22 3.495534689660467365e+01 -2.284704075521673872e+00 -2.886894979217368018e+01 8.228455506778118433e+00 5.394395476410863921e+00 5.329416931647756428e+00 -2.772587612143979641e-01 6.118484126565817860e+00 3.642974532785956399e+00 3.147715200457696483e+00 4.398282742110040999e+00 1.105313501211639959e-01 3.746898332228738582e-01 1.860249602896146826e-01
